{
  "materialId" : 3797,
  "materialName" : "raposablackmarble",
  "particleColor" : [27, 29, 33, 255],
  "itemDrop" : "raposablackmarble",
  "description" : "A dyed slab of exotic marble.",
  "shortdescription" : "Black Marble",
  "glitchDescription" : "Bored. Marble is often overused by nobility.",
  "floranDescription" : "Floran uninterested in ssswirly rock.",
  "novakidDescription" : "I ain't used to seeing my reflection on the floor.",
  "raposaDescription" : "Some marble, mined from Lavasteam then promptly stained.",
  "footstepSound" : "/sfx/blocks/footstep_stone.ogg",
  "health" : 7,
  "category" : "materials",

  "renderTemplate" : "/tiles/classicmaterialtemplate.config",
  "renderParameters" : {
    "texture" : "raposablackmarble.png",
    "variants" : 5,
    "lightTransparent" : false,
    "occludesBelow" : true,
    "multiColored" : false,
    "zLevel" : 280
  }
}
