{
  "materialId" : 3789,
  "materialName" : "raposapaintcyan",
  "particleColor" : [114, 161, 180, 255],
  "itemDrop" : "raposapaintcyan",
  "description" : "A plain block that can be recolored.",
  "shortdescription" : "Cyan Paint",
  "glitchDescription" : "Overwhelmed. I can color this material whatever I want...",
  "floranDescription" : "Floran unimpresssed by boring wall.",
  "novakidDescription" : "And now what's the shame in having a plain wall?",
  "raposaDescription" : "Some simple paint. I can use the color tool on my Manipulator to change it.",
  "footstepSound" : "/sfx/blocks/footstep_ash.ogg",
  "health" : 4,
  "category" : "materials",
  "damageTable" : "/tiles/flammableDamage.config",

  "renderTemplate" : "/tiles/classicmaterialtemplate.config",
  "renderParameters" : {
    "texture" : "paint_cyan.png",
    "variants" : 1,
    "lightTransparent" : false,
    "occludesBelow" : true,
    "multiColored" : true,
    "zLevel" : 280
  }
}
