X: 1
T: Track 7 - Clavinet
Z: ABC Generated by Starbound Composer v0.8.7
L: 1/4
Q: 1/4=210
K: C
d15/32 z/32 ^c/ [d/d2] z/ a [z/A2] a/ 
b/ a/ d2 z/ [D/d/] 
[d/d'/] c/ [^c'd2] z/ c'/ [bG3/] z/ 
[A/b/] [a2^F5/] z/ [D/a/] [d/d'/] 
c/ [c'd2] z/ c'/ [bF3/] z/ 
[G/b/] [a/A2] z/ d' [aD2] z 
[gE25/16] z/ g/ [^fF17/16] z/ [G7/16g/] z/16 
[A29/24a3/] z67/24 
d/ z/ a z/ a/ b/ a/ 
d2 z/ d/ d'/ z/ 
c' z/ d'/ e' z/ c'/ 
a2 z/ a/ d'/ z/ 
c' z/ c'/ b z/ b/ 
a/ z/ d' a z 
g z/ g/ f z/ e/ 
d3/ z7/ 
[A,/F/] [^F,/E/] [D,/F/] D/ D,/ z F/ 
A,/ [F,/E/] [D,/F/] D/ D,/ z3/ 
[B,/F/] [G,/E/] [D,/F/] D/ D,/ F/ z/ F/ 
^C/ [A,/F/] [E,/d] G/ [E,/e/A/] z/ [zf3/] 
[A,/F/] [F,/E/] [D,/F/] D/ D,/ z F/ 
[A,/g] [F,/E/] [D,/f/F/] D/ [D,/e/] z/ [zd2] 
[G,/F/] [D,/E/] [B,,/F/] D/ B,,/ F/ z/ F/ 
E,/ F/ d/ G/ [e/A/] z/ [zf2] 
[F,/F/] [D,/E/] [B,,/F/] D/ B,,/ z F/ 
[F,/g/] [D,/E/] [B,,/f/F/] D/ [B,,/e/] z/ [zd3/] 
[B,/F/] [G,/E/] [D,/F/] D/ D,/ F/ z/ F/ 
B,/ [G,/F/] [D,/d] G/ [D,/e/A/] z/ [A17/32f3/] z15/32 
A,/ F,/ ^C,/ z/ C,/ z3/ 
[A,/g/] F,/ [C,/f/] z/ [B11/24C,/d/] z/24 A5/18 z2/9 [A13/24e3/] z23/24 
A5/12 z13/12 A5/16 z75/16 
F2 D E/ z/ 
F z D/ z/ D/ z/ 
F/ z/ G/ z/ A z 
F z3 
F3/ z/ D/ z/ E/ z/ 
F3/ z/ G/ z/ F/ z/ 
E3/ z/ D/ z/ C/ z/ 
E z3 
[D/A2] z/ A/ z/ [D/F] z/ [G/A/] [z/A3/] 
D/ z/ A/ z/ [F/D/] z/ [F/A/] z/ 
[A/D/] z/ [B/A/] z/ [D/c] z/ [A/A2] z/ 
D/ z/ A/ z/ [B/G3/] z/ c/ z/ 
[D/A3/] z/ A/ z/ [F/D/] z/ [G/A/] [z/A2] 
D/ z/ A/ z/ [D15/32B/] z17/32 [A15/32A/] z17/32 
G3/ z/ F/ z/ E/ G3/ 
