{
  "kind" : "raposamagic-purple",
  "definition" : {
    "type" : "animated",
    "animation" : "/animations/sparkles/sparkle6.animation",
    "position" : [-0.1, 0.25],
    "initialVelocity" : [0, 0],
    "finalVelocity" : [0, -0.0],
    "approach" : [-5, 0],
    "timeToLive" : 0.85,
    "light" : [63, 63, 38],
    "layer" : "front",
    "destructionAction" : "shrink",
    "fade" : 0.5,
    "variance" : {
      "initialVelocity" : [0.0, 0.0],
      "finalVelocity" : [0, 0],
      "position" : [0.6, 0.6],
      "destructionTime" : 0.1
    }
  }
}
